<?xml version="1.0" standalone="no"?>
<!DOCTYPE svg PUBLIC "-//W3C//DTD SVG 20010904//EN"
 "http://www.w3.org/TR/2001/REC-SVG-20010904/DTD/svg10.dtd">
<svg version="1.0" xmlns="http://www.w3.org/2000/svg"
 width="512.000000pt" height="512.000000pt" viewBox="0 0 512.000000 512.000000"
 preserveAspectRatio="xMidYMid meet">
<metadata>
Created by potrace 1.11, written by Peter Selinger 2001-2013
</metadata>
<g transform="translate(0.000000,512.000000) scale(0.100000,-0.100000)"
fill="#000000" stroke="none">
<path d="M2265 4738 c-186 -35 -358 -200 -410 -392 -20 -75 -13 -227 13 -300
l22 -60 -42 -55 c-67 -89 -94 -116 -253 -250 -82 -69 -161 -136 -175 -147 -14
-12 -90 -77 -170 -144 -80 -68 -147 -126 -150 -129 -3 -3 -24 -21 -48 -39 -37
-29 -51 -33 -112 -37 -89 -4 -171 -29 -231 -67 -68 -45 -83 -77 -85 -176 l-1
-83 -79 -67 c-93 -79 -117 -103 -170 -168 -21 -27 -41 -51 -44 -54 -14 -13
-92 -141 -119 -195 -97 -194 -143 -460 -118 -695 14 -133 36 -203 193 -622
196 -520 201 -538 208 -711 4 -86 8 -103 31 -139 72 -109 239 -99 295 18 19
39 23 65 25 182 l2 137 82 240 c46 132 98 269 117 305 66 127 178 239 304 304
65 34 94 44 450 156 107 34 214 67 237 75 37 12 45 12 57 0 30 -30 56 -84 77
-160 21 -75 22 -101 24 -445 1 -201 5 -376 9 -390 48 -147 255 -162 322 -23
16 34 18 69 20 313 1 151 2 276 3 278 0 1 15 -5 32 -14 72 -36 170 -8 219 63
27 40 26 26 33 398 4 176 8 221 24 236 8 7 134 49 223 74 25 8 101 31 170 53
69 22 247 79 395 126 149 46 284 89 300 95 17 5 104 33 195 62 91 28 232 74
315 102 82 27 160 51 172 53 13 3 47 14 75 25 209 82 341 284 333 509 -4 141
-55 256 -164 375 -238 258 -368 380 -590 552 -279 217 -569 391 -903 538 -56
25 -112 50 -123 55 -95 42 -463 168 -541 185 -10 2 -71 16 -134 30 -127 29
-239 37 -315 23z m195 -188 c41 -41 13 -110 -48 -117 -93 -12 -176 -67 -201
-134 -27 -71 -31 -78 -49 -88 -14 -7 -25 -6 -41 6 -20 14 -22 21 -16 61 8 51
35 122 47 122 5 0 8 6 8 13 0 20 69 86 115 110 93 48 155 57 185 27z m-288
-474 c31 -23 30 -65 -1 -97 -26 -26 -32 -28 -60 -18 -50 18 -65 64 -35 107 17
25 68 30 96 8z m-162 -247 c63 -58 120 -90 205 -115 240 -69 649 -262 1000
-472 347 -207 797 -523 902 -634 l41 -45 -31 -10 c-18 -6 -122 -40 -232 -76
-733 -238 -955 -312 -991 -333 -53 -30 -95 -79 -127 -145 -46 -100 -56 -172
-57 -433 -1 -260 -4 -279 -54 -288 -18 -4 -34 2 -51 18 l-25 23 0 252 c0 238
-1 253 -21 289 -37 66 -82 57 -114 -22 -17 -39 -18 -91 -19 -610 -1 -539 -2
-567 -20 -587 -24 -27 -68 -27 -91 -1 -18 20 -19 46 -20 378 -1 196 -5 371 -8
387 -4 17 -9 45 -12 64 -19 115 -106 251 -187 292 -116 59 -215 59 -398 0
-435 -140 -491 -161 -585 -231 -155 -115 -239 -237 -313 -460 -58 -175 -65
-230 -68 -530 -2 -259 -3 -265 -24 -282 -29 -24 -63 -23 -86 3 -14 16 -19 39
-21 112 -5 163 -11 182 -212 720 -176 468 -195 539 -195 722 1 241 66 455 201
657 49 74 160 191 249 264 l50 42 34 -19 c143 -75 362 -69 487 14 69 46 92 96
87 189 -3 61 -8 77 -32 107 -16 20 -50 48 -76 62 l-47 26 39 34 c21 19 92 79
157 134 487 412 543 463 583 528 9 15 19 27 22 27 3 0 30 -23 60 -51z m2605
-481 c111 -28 225 -131 266 -240 101 -272 -104 -556 -391 -543 -226 11 -391
198 -378 426 15 251 254 421 503 357z m-3503 -278 c30 -11 66 -32 81 -48 23
-24 25 -30 14 -52 -14 -29 -103 -76 -162 -85 -121 -19 -243 6 -302 61 -24 23
-31 37 -26 50 33 87 251 128 395 74z"/>
<path d="M1890 3436 c-134 -28 -199 -117 -145 -199 63 -97 325 -120 447 -40
38 26 68 74 63 102 -2 9 -4 21 -4 28 -1 6 -12 25 -26 42 -53 62 -211 94 -335
67z m179 -97 c28 -6 61 -19 73 -29 l22 -17 -22 -7 c-12 -4 -22 -11 -22 -16 0
-12 -87 -24 -154 -22 -32 1 -79 11 -104 22 -38 17 -43 22 -32 35 31 37 148 54
239 34z"/>
<path d="M2612 2958 c-123 -14 -221 -63 -262 -131 -26 -41 -27 -153 -4 -203
20 -41 73 -84 134 -108 67 -27 95 -31 200 -31 146 1 254 45 307 124 19 28 23
48 23 110 0 78 -18 127 -59 158 -74 58 -227 94 -339 81z m175 -102 c100 -27
156 -82 123 -121 -17 -20 -74 -55 -102 -61 -72 -17 -100 -21 -154 -19 -110 3
-234 60 -234 107 0 25 57 70 112 88 67 22 187 25 255 6z"/>
<path d="M1713 2748 c-28 -7 -83 -58 -83 -77 0 -4 8 -15 18 -23 42 -38 174
-29 187 12 14 45 -65 103 -122 88z"/>
<path d="M3323 2630 c-36 -21 -57 -55 -49 -76 17 -45 182 -46 199 -1 8 22 -12
57 -45 77 -41 25 -64 25 -105 0z"/>
<path d="M1085 2451 c-155 -42 -215 -107 -215 -231 0 -71 15 -105 65 -149 152
-133 522 -101 601 51 24 46 22 167 -3 211 -24 42 -101 93 -170 113 -77 22
-205 25 -278 5z m279 -101 c106 -40 123 -97 43 -144 -111 -65 -302 -62 -400 6
-41 29 -51 55 -33 82 48 74 260 104 390 56z"/>
<path d="M2107 2235 c-16 -8 -21 -19 -20 -40 1 -15 6 -32 11 -37 14 -14 301
-11 318 3 19 16 18 53 -3 70 -21 18 -273 21 -306 4z"/>
<path d="M421 2099 c-42 -42 -40 -66 6 -86 41 -17 124 -13 149 8 42 35 -17
109 -86 109 -30 0 -46 -7 -69 -31z"/>
<path d="M772 1779 c-116 -39 -240 -158 -256 -243 -9 -45 15 -98 51 -117 121
-65 394 102 419 255 11 71 -50 130 -130 124 -18 -1 -56 -10 -84 -19z m118 -90
c0 -35 -80 -116 -152 -154 -59 -31 -133 -43 -124 -19 3 8 6 19 6 24 0 21 96
104 152 130 64 30 118 39 118 19z"/>
</g>
</svg>
